<svg width="30" height="27" viewBox="0 0 30 27" fill="none" xmlns="http://www.w3.org/2000/svg">
<path d="M23.5892 0.879883H28.0361L18.321 11.8932L29.75 26.8799H20.8012L13.7921 17.7906L5.77218 26.8799H1.32264L11.7139 15.0999L0.749985 0.879883H9.92599L16.2616 9.18788L23.5892 0.879883ZM22.0285 24.2399H24.4925L8.58709 3.38121H5.94291L22.0285 24.2399Z" fill="white"/>
</svg>
